<svg aria-hidden="true" width="44" height="44" viewBox="0 0 44 44" fill="none" xmlns="http://www.w3.org/2000/svg">
<line x1="0" x2="44" y1="40" y2="40" fill="currentColor" style="stroke:currentColor;stroke-width:4" />
</svg>
